[
    {
        "titulo": "Usuário",
        "class": "form-group col-md-12",
        "childs": [
            {
                "label": "Usuário",
                "component": "input",
                "model": "nome_usuario",
                "class": "col-md-4 form-group",
                "elemClass": "form-control",
                "keys": {
                    "disabled": true
                }
            },
            {
                "label": "Perfil",
                "component": "selectlokup",
                "model": "perfil",
                "class": "col-md-4 form-group",
                "elemClass": "form-control"
            },
            {
                "label": "Situação",
                "component": "selectlokup",
                "model": "ativo",
                "class": "col-md-4 form-group",
                "elemClass": "form-control",
                "keys":{
                    "options": [
                        { "id": "1", "name": "Sim" },
                        { "id": "2", "name": "Não" }
                    ],
                    "selected": "1"
                }
            }
        ]
    }
]