[
    {
        "titulo": "Permissão",
        "class": "form-group col-md-12",
        "childs": [
            {
                "label": "Perfil",
                "component": "selectlokup",
                "model": "perfil",
                "class": "col-md-4 form-group",
                "elemClass": "form-control"
            },
            {
                "label": "Módulo",
                "component": "selectlokup",
                "model": "modulo",
                "class": "col-md-4 form-group",
                "elemClass": "form-control"
            },
            {
                "label": "Situação",
                "component": "selectlokup",
                "model": "ativo",
                "class": "col-md-4 form-group",
                "elemClass": "form-control",
                "keys":{
                    "options": [
                        { "id": "1", "name": "Sim" },
                        { "id": "2", "name": "Não" }
                    ],
                    "selected": "1"
                }
            },
            {
                "label": "Criar",
                "component": "input",
                "model": "create",
                "class": "col-md-1 form-group",
                "elemClass": "form-control",
                "type": "checkbox",
                "checked": 1,
                "unchecked": 2,
                "value": 2,
                "keys": {
                    "checked": false
                }
            },
            {
                "label": "Editar",
                "component": "input",
                "model": "update",
                "class": "col-md-1 form-group",
                "elemClass": "form-control",
                "type": "checkbox",
                "checked": 1,
                "unchecked": 2,
                "value": 2,
                "keys": {
                    "checked": false
                }
            },
            {
                "label": "Apagar",
                "component": "input",
                "model": "delete",
                "class": "col-md-1 form-group",
                "elemClass": "form-control",
                "type": "checkbox",
                "checked": 1,
                "unchecked": 2,
                "value": 2,
                "keys": {
                    "checked": false
                }
            },
            {
                "label": "Ver",
                "component": "input",
                "model": "show",
                "class": "col-md-1 form-group",
                "elemClass": "form-control",
                "type": "checkbox",
                "checked": 1,
                "unchecked": 2,
                "value": 2,
                "keys": {
                    "checked": false
                }
            },
            {
                "label": "Listar",
                "component": "input",
                "model": "select",
                "class": "col-md-1 form-group",
                "elemClass": "form-control",
                "type": "checkbox",
                "checked": 1,
                "unchecked": 2,
                "value": 2,
                "keys": {
                    "checked": false
                }
            }
        ]
    }
]